{
  "productName": "word-spotting-demostrator",
  "directories": {
    "app": "dist",
    "output": "app-builds"
  },
  "win": {
    "icon": "dist/favicon",
    "target": [
      "portable"
    ]
  },
  "mac": {
    "icon": "dist/favicon",
    "target": [
      "dmg"
    ]
  },
  "linux": {
    "icon": "dist",
    "target": [
      "AppImage"
    ]
  }
}
